<?xml version="1.0" encoding="utf-8"?>
<!-- Generator: Adobe Illustrator 15.0.0, SVG Export Plug-In . SVG Version: 6.00 Build 0)  -->
<!DOCTYPE svg PUBLIC "-//W3C//DTD SVG 1.1//EN" "http://www.w3.org/Graphics/SVG/1.1/DTD/svg11.dtd">
<svg version="1.1" id="Layer_1" xmlns="http://www.w3.org/2000/svg" xmlns:xlink="http://www.w3.org/1999/xlink" x="0px" y="0px"
	 width="32px" height="32px" viewBox="0 0 32 32" enable-background="new 0 0 32 32" xml:space="preserve">
<g>
	<path fill-rule="evenodd" clip-rule="evenodd" fill="#DFE5E9" d="M0,16C0,7.16,7.16,0,16,0s16,7.16,16,16s-7.16,16-16,16
		S0,24.84,0,16z"/>
	<path fill-rule="evenodd" clip-rule="evenodd" fill="#B3BCC4" d="M20.6,12.13c0.71,0.68,1.87,0.68,2.58,0
		c0.72-0.68,0.72-1.78,0-2.46c-0.71-0.68-1.87-0.68-2.58,0C19.89,10.35,19.89,11.45,20.6,12.13z M5.36,17.36
		c-0.48,0.46-0.48,1.21,0,1.67l8,7.62c0.49,0.47,1.27,0.47,1.76,0l10.27-9.78c0.64-0.62,0.59-1.13,0.59-1.77L26,8.47
		C26,7.68,25.29,7,24.45,7l-6.97,0.01c-0.69,0-1.18-0.08-1.85,0.56L5.36,17.36z"/>
</g>
</svg>
