<?xml version="1.0" encoding="utf-8"?>
<!-- Generator: Adobe Illustrator 15.0.0, SVG Export Plug-In . SVG Version: 6.00 Build 0)  -->
<!DOCTYPE svg PUBLIC "-//W3C//DTD SVG 1.1//EN" "http://www.w3.org/Graphics/SVG/1.1/DTD/svg11.dtd">
<svg version="1.1" id="Layer_1" xmlns="http://www.w3.org/2000/svg" xmlns:xlink="http://www.w3.org/1999/xlink" x="0px" y="0px"
	 width="18px" height="18px" viewBox="1.771 2 18 18" enable-background="new 1.771 2 18 18" xml:space="preserve">
<path fill="#FFFFFF" d="M1.771,8.75c0,3.73,3.021,6.75,6.75,6.75c1.676,0,3.205-0.604,4.386-1.615l5.829,5.83
	c0.301,0.301,0.711,0.375,0.921,0.17c0.204-0.21,0.13-0.619-0.171-0.92l-5.829-5.835c1.005-1.175,1.614-2.71,1.614-4.38
	c0-3.73-3.02-6.75-6.75-6.75C4.792,2,1.771,5.02,1.771,8.75z M2.771,8.75C2.771,5.575,5.347,3,8.521,3c3.176,0,5.75,2.575,5.75,5.75
	s-2.574,5.75-5.75,5.75C5.347,14.5,2.771,11.925,2.771,8.75z"/>
</svg>
