<?xml version="1.0" encoding="utf-8"?>
<!-- Generator: Adobe Illustrator 15.0.0, SVG Export Plug-In . SVG Version: 6.00 Build 0)  -->
<!DOCTYPE svg PUBLIC "-//W3C//DTD SVG 1.1//EN" "http://www.w3.org/Graphics/SVG/1.1/DTD/svg11.dtd">
<svg version="1.1" id="Layer_1" xmlns="http://www.w3.org/2000/svg" xmlns:xlink="http://www.w3.org/1999/xlink" x="0px" y="0px"
	 width="18px" height="18px" viewBox="0 0 18 18" enable-background="new 0 0 18 18" xml:space="preserve">
<g>
	<polygon fill-rule="evenodd" clip-rule="evenodd" fill="#FFDF71" points="9,13.362 3.889,16.941 5.708,10.97 0.73,7.213 
		6.969,7.106 9,1.205 11.031,7.106 17.271,7.213 12.292,10.97 14.112,16.942 	"/>
	<path fill="#E1AE00" d="M9,1.973l1.738,5.048l0.114,0.331l0.35,0.006l5.339,0.092l-4.26,3.214l-0.279,0.211l0.102,0.334
		l1.558,5.111l-4.375-3.063L9,13.058l-0.287,0.201l-4.375,3.063l1.558-5.111l0.102-0.334L5.72,10.665l-4.26-3.214l5.339-0.092
		l0.35-0.006l0.114-0.331L9,1.973 M9,0.437L6.79,6.859L0,6.976l5.418,4.088l-1.98,6.498L9,13.668l5.563,3.895l-1.98-6.498L18,6.976
		l-6.789-0.117L9,0.437L9,0.437z"/>
</g>
</svg>
