<?xml version="1.0" encoding="utf-8"?>
<!-- Generator: Adobe Illustrator 15.0.0, SVG Export Plug-In . SVG Version: 6.00 Build 0)  -->
<!DOCTYPE svg PUBLIC "-//W3C//DTD SVG 1.1//EN" "http://www.w3.org/Graphics/SVG/1.1/DTD/svg11.dtd">
<svg version="1.1" id="Layer_1" xmlns="http://www.w3.org/2000/svg" xmlns:xlink="http://www.w3.org/1999/xlink" x="0px" y="0px"
	 width="28px" height="28px" viewBox="0 0 28 28" enable-background="new 0 0 28 28" xml:space="preserve">
<path fill-rule="evenodd" clip-rule="evenodd" fill="#D1D1D1" d="M14,1.64c0-0.63-0.45-1.14-1-1.14h-3c-0.55,0-1,0.51-1,1.14v4.72
	C9,6.99,9.45,7.5,10,7.5h3c0.55,0,1-0.51,1-1.14V1.64z M23,11.64c0-0.63-0.449-1.14-1-1.14h-5c-0.549,0-1,0.51-1,1.14v4.72
	c0,0.631,0.451,1.14,1,1.14h5c0.551,0,1-0.509,1-1.14V11.64z M28,11.64c0-0.63-0.449-1.14-1-1.14h-1c-0.549,0-1,0.51-1,1.14v4.72
	c0,0.631,0.451,1.14,1,1.14h1c0.551,0,1-0.509,1-1.14V11.64z M19,21.64c0-0.63-0.449-1.141-1-1.141h-3c-0.549,0-1,0.511-1,1.141
	v4.72c0,0.631,0.45,1.14,1,1.14h3c0.551,0,1-0.509,1-1.14V21.64z M7,1.64C7,1.01,6.55,0.5,6,0.5H1c-0.55,0-1,0.51-1,1.14v4.72
	C0,6.99,0.45,7.5,1,7.5h5c0.55,0,1-0.51,1-1.14V1.64z M14,11.64c0-0.63-0.45-1.14-1-1.14H1c-0.55,0-1,0.51-1,1.14v4.72
	c0,0.631,0.45,1.14,1,1.14h12c0.55,0,1-0.509,1-1.14V11.64z M12,21.64c0-0.63-0.45-1.141-1-1.141H1c-0.55,0-1,0.511-1,1.141v4.72
	c0,0.631,0.45,1.14,1,1.14h10c0.55,0,1-0.509,1-1.14V21.64z"/>
</svg>
