<?xml version="1.0" encoding="utf-8"?>
<!-- Generator: Adobe Illustrator 15.0.0, SVG Export Plug-In . SVG Version: 6.00 Build 0)  -->
<!DOCTYPE svg PUBLIC "-//W3C//DTD SVG 1.1//EN" "http://www.w3.org/Graphics/SVG/1.1/DTD/svg11.dtd">
<svg version="1.1" id="Layer_1" xmlns="http://www.w3.org/2000/svg" xmlns:xlink="http://www.w3.org/1999/xlink" x="0px" y="0px"
	 width="25px" height="25px" viewBox="0 0 25 25" enable-background="new 0 0 25 25" xml:space="preserve">
<path fill-rule="evenodd" clip-rule="evenodd" fill="#FFFFFF" d="M1,2.855v0.73v0.24c0,0,0,0,0,0.14c0,0.51,0.35,1.17,0.88,1.89
	c1.41,1.91,4.15,4.26,5.38,5.62c0.65,0.73,1.52,1.64,2,2.32v9.83c0,0.09,0.17,0.18,0.26,0.23l4.96-1.5c0.13,0,0.22-0.14,0.26-0.18
	v-8.33c0-0.73,5.48-5.79,5.78-6.06c0.58-0.64,1.33-1.36,1.74-1.93l0.13-0.21c0.39-0.68,0.61-1.04,0.61-1.64
	c0-0.15,0.05-0.083,0-0.212V3.585v-0.73H1z M1.86,3.585h20.3c0.12,0.13,0.19,0.27,0.19,0.42c0,0.5-0.41,1.17-0.98,1.85H2.77
	c-0.65-0.77-1.12-1.47-1.12-1.89C1.65,3.825,1.74,3.695,1.86,3.585z M5,6.855h3l2,5L5,6.855z M23,4.005c0-0.15,0.005-0.052,0-0.212
	V3.585"/>
</svg>
