<?xml version="1.0" encoding="utf-8"?>
<!-- Generator: Adobe Illustrator 15.0.0, SVG Export Plug-In . SVG Version: 6.00 Build 0)  -->
<!DOCTYPE svg PUBLIC "-//W3C//DTD SVG 1.1//EN" "http://www.w3.org/Graphics/SVG/1.1/DTD/svg11.dtd">
<svg version="1.1" id="Layer_1" xmlns="http://www.w3.org/2000/svg" xmlns:xlink="http://www.w3.org/1999/xlink" x="0px" y="0px"
	 width="20px" height="13px" viewBox="0 0.5 20 13" enable-background="new 0 0.5 20 13" xml:space="preserve">
<rect y="0.5" fill="#FFFFFF" width="20" height="1"/>
<rect y="6.5" fill="#FFFFFF" width="20" height="1"/>
<rect y="12.5" fill="#FFFFFF" width="20" height="1"/>
</svg>
