<?xml version="1.0" encoding="utf-8"?>
<!-- Generator: Adobe Illustrator 15.0.0, SVG Export Plug-In . SVG Version: 6.00 Build 0)  -->
<!DOCTYPE svg PUBLIC "-//W3C//DTD SVG 1.1//EN" "http://www.w3.org/Graphics/SVG/1.1/DTD/svg11.dtd">
<svg version="1.1" id="Layer_1" xmlns="http://www.w3.org/2000/svg" xmlns:xlink="http://www.w3.org/1999/xlink" x="0px" y="0px"
	 width="29px" height="29px" viewBox="0 0 29 29" enable-background="new 0 0 29 29" xml:space="preserve">
<path fill-rule="evenodd" clip-rule="evenodd" fill="#FFFFFF" d="M26.109,0.483c-0.649-0.636-1.684-0.646-2.303-0.021l-1.573,1.584
	l4.688,4.69l1.633-1.645c0.619-0.625,0.589-1.654-0.071-2.3L26.109,0.483z M20.184,4.115L4.069,20.295C3.44,20.92,0,29,0,29
	s8.047-3.308,8.676-3.934L24.872,8.806L20.184,4.115z"/>
</svg>
