<?xml version="1.0" encoding="utf-8"?>
<!-- Generator: Adobe Illustrator 15.0.0, SVG Export Plug-In . SVG Version: 6.00 Build 0)  -->
<!DOCTYPE svg PUBLIC "-//W3C//DTD SVG 1.1//EN" "http://www.w3.org/Graphics/SVG/1.1/DTD/svg11.dtd">
<svg version="1.1" id="Layer_1" xmlns="http://www.w3.org/2000/svg" xmlns:xlink="http://www.w3.org/1999/xlink" x="0px" y="0px"
	 width="22px" height="22px" viewBox="0 0 22 22" enable-background="new 0 0 22 22" xml:space="preserve">
<path opacity="0.6" fill-rule="evenodd" clip-rule="evenodd" d="M2.2,0h17.6C21.01,0,22,0.98,22,2.2v17.6c0,1.22-0.99,2.2-2.2,2.2
	H2.2C0.98,22,0,21.02,0,19.8V2.2C0,0.98,0.98,0,2.2,0z"/>
<path fill-rule="evenodd" clip-rule="evenodd" fill="#FFFFFF" d="M5.077,6.089v1.142h11.846V6.089l-3.23-1.012V4H8.308v1.077
	L5.077,6.089z M6.154,8.308V18h9.692V8.308H6.154z M7.231,9.385h1.077v7.538H7.231V9.385z M11.539,9.385h1.077v7.538h-1.077V9.385z
	 M9.385,9.385h1.077v7.538H9.385V9.385z M13.692,9.385h1.077v7.538h-1.077V9.385z"/>
</svg>
